{"currentPage":0,"queryInfo":{},"totalResults":218,"youtubeQuotaUsed":605,"totalPages":22,"results":[{"channelId":"UCyA1--K3Wd0qBl54ICuI8Gw","channelName":"えーてぃーあい ちゃんねる【Anime Themed Items Channel】","description":"面白おかしいコマ撮り動画クリエイター\n\n","profileImageUrl":"https://yt3.ggpht.com/lzQyIqQC0OpEVSff_Ll165NMnTeNfJfBN6CmZ9Al_lriiIs4VqPd4dyynyD8jKGrTngub0u1gw=s800-c-k-c0x00ffffff-no-rj","platform":"youtube","score":{"genreRelevance":0.95,"audienceFit":0.9,"engagementQuality":0.9999999999978724,"activityConsistency":0.9,"freshness":1.0,"finalScore":0.9474999999995745},"labels":["Best Match","High Influence","Highly engaging content"],"subscriberCount":1650000,"viewCount":969409657,"lastVideoDate":"2026-02-08T00:00:53Z","finalScore":0.9474999999995745},{"channelId":"UCcD66MhSlm_5MHt1W12c2tg","channelName":"Anime oi","description":"Hi Guys,\nWelcome to My Channel.\n\nE-mail: Animeoibusiness@gmail.com\n","profileImageUrl":"https://yt3.ggpht.com/5rO_-RacmooZMSivH9cKZsCF_CIQWZlJIXGQkufnH89LXDYzG21VTiTZTvLdL7ugI0YvDhSEgw=s800-c-k-c0x00ffffff-no-rj","platform":"youtube","score":{"genreRelevance":0.95,"audienceFit":0.9,"engagementQuality":0.9999978880513521,"activityConsistency":0.9,"freshness":1.0,"finalScore":0.9474995776102704},"labels":["Best Match","High Influence","Highly engaging content"],"subscriberCount":1190000,"viewCount":370515958,"lastVideoDate":"2026-02-07T08:39:46Z","finalScore":0.9474995776102704},{"channelId":"UCTlx_TWkv-QStYO7KEDmfYw","channelName":"Anime Tamilan boy","description":"Welcome to ANIME TAMILAN BOY ☺️\n.\nDaily sharp-ah 5 P.M video varum ⏰\n.\nNaruto \uD83D\uDD25 & One Piece \uD83C\uDFF4‍☠️ special edits.\n.\nWay to 300K \uD83D\uDE80 | Vaanga, Anime ulagathula payanikkalam ❤️✨\n.\nSupport pannunga, subscribe pannunga \uD83D\uDD14\n","profileImageUrl":"https://yt3.ggpht.com/U7I9XbJBg8gcYZZYVkKfyBd8cMD3LCvJoAvQMaKK5C82UGbNuF20qXSPoD1q4CjnO3cHpk4O2A=s800-c-k-c0x00ffffff-no-rj","platform":"youtube","score":{"genreRelevance":0.95,"audienceFit":0.7,"engagementQuality":0.9999999999935856,"activityConsistency":1.0,"freshness":1.0,"finalScore":0.922499999998717},"labels":["Best Match","Highly engaging content"],"subscriberCount":300000,"viewCount":169634857,"lastVideoDate":null,"finalScore":0.922499999998717},{"channelId":"UCCjDVYW8t7cEC-IQY55JFQg","channelName":"Anime Box","description":"Welcome to subscribe to Anime Box~ Join us to watch [Soul Land] [Soul Land II] [Perfect World] [Throne of Seal] [Swallowed Star] [Renegade Immortal] first and we will provide you the best Tencent animations!\n\n*If you are in Indonesia, Malaysia, Vietnam, or Philippines, please change other location to watch the anime\n","profileImageUrl":"https://yt3.ggpht.com/mf_kw-bHGKbyu3NLOYwSMINChEuUSGA7I3C9ZHeM7u3pxqTApsfXqFeUrUaojSYaFLGUazs-SUM=s800-c-k-c0x00ffffff-no-rj","platform":"youtube","score":{"genreRelevance":0.95,"audienceFit":0.7,"engagementQuality":0.9999993011534519,"activityConsistency":1.0,"freshness":1.0,"finalScore":0.9224998602306903},"labels":["Best Match","Highly engaging content"],"subscriberCount":729000,"viewCount":243104499,"lastVideoDate":null,"finalScore":0.9224998602306903},{"channelId":"UC0K5gohgloEkcdsA5u6p8lw","channelName":"Anime Focus-on","description":"-Welcome to subscribe to Anime Focus-on~ Join us to watch 【Battle Through the Heavens】【The King's Avatar】【Versatile Mage】and so on!\n\n-More Chinese animation for you to see！Welcome to subscribe~\n\n\uD83D\uDCCC【Battle Through the Heavens】：Update 1 EP every Sun at 10:00 AM (UTC+8) \n\uD83D\uDCCC【The King's Avatar】：Update 1 EP every Fri at 10:00 AM (UTC+8)  \n","profileImageUrl":"https://yt3.ggpht.com/iP_sFxau9NEequh70Bvg3QS_eg6HVYkODuNa7HT19kJBuB6wrfssaMWQtMSkWRiHTVGEcQ7m=s800-c-k-c0x00ffffff-no-rj","platform":"youtube","score":{"genreRelevance":0.95,"audienceFit":0.7,"engagementQuality":0.9997504831768945,"activityConsistency":1.0,"freshness":1.0,"finalScore":0.9224500966353788},"labels":["Best Match","Highly engaging content"],"subscriberCount":212000,"viewCount":45773915,"lastVideoDate":null,"finalScore":0.9224500966353788},{"channelId":"UC8rUo4XvZvXFqIolF-UMz8Q","channelName":"Anime boy India","description":"வணக்கம் நண்பர்களே, அனிம் பிரியர்கள் மற்றும் அனிம் ரசிகர்களுக்கு இந்த அனிம் தொடர்கள் மற்றும் புதிய உள்ளடக்கம் போன்ற புதிய வீடியோ ஷார்ட்களை தமிழ் விளக்கத்துடன் வழங்குவதற்காக அனிம் ரசிகர்கள் மற்றும் குழந்தைகள் மற்றும் பெரியவர்களுக்காக இந்த சேனலை உருவாக்கியுள்ளோம்.\n\nதிகில், இசேகாய், மேஜிக், ரொமான்ஸ், சி-ஃபி, சூப்பர் பவர், சூப்பர்நேச்சுரல், த்ரில்லர், வாம்பயர் இந்த வகை உள்ளடக்கம் இதில் பதிவேற்றப்படும். குழுசேரவும், ரசிக்க எங்கள் குடும்பத்தில் சேரவும்\n\nHello guys We have created this channel for anime fans and kids and adults to provide these anime series and videos shorts like new conent with tamil explanation to anime lovers and anime fans .We have started with a purpose through this (Anime Boy India) channel to entertain you with anime conent like Action, Adventure, Cars, Comdey, Ecchi, Fantasy, Harem, Horror, Isekai, Magic, Romance, Seinen, Si-fi, superpower, supernatural, Thriller, Vampire this type conent will upload in this so make to subscribe and join our family to enjoy","profileImageUrl":"https://yt3.ggpht.com/YS5ZKY4y6rdkz3rmBY1LsP5ANXIzA4nK1gANqUCmb2ehU8TMZjby7y3QfCNnQTsVaaqJx4tQtA=s800-c-k-c0x00ffffff-no-rj","platform":"youtube","score":{"genreRelevance":0.95,"audienceFit":0.7,"engagementQuality":0.999710448211119,"activityConsistency":1.0,"freshness":1.0,"finalScore":0.9224420896422237},"labels":["Best Match","Highly engaging content"],"subscriberCount":106000,"viewCount":22571400,"lastVideoDate":"2026-02-07T10:52:38Z","finalScore":0.9224420896422237},{"channelId":"UCDcBMaOjzzyxxCdIsClimhQ","channelName":"Anime RR","description":"Welcome to anime world\uD83D\uDCAB\uD83D\uDCAB\uD83D\uDCAB\n\n\n\nDon't give us copyright strike just contact us & we'll\nremove video as soon as we can.\n\n\n\n For Any enquiry -  rr9155213@gmail.com\n\n","profileImageUrl":"https://yt3.ggpht.com/r1FEujz8B2_rXTDjXaV_AoTqocDDItDnJ2eZszpqyY_ZRlegJZDqBj-V1_mfdIo-ce04KYpeUQ=s800-c-k-c0x00ffffff-no-rj","platform":"youtube","score":{"genreRelevance":0.95,"audienceFit":0.7,"engagementQuality":0.9958068714605333,"activityConsistency":1.0,"freshness":1.0,"finalScore":0.9216613742921066},"labels":["Best Match","Highly engaging content"],"subscriberCount":161000,"viewCount":25663742,"lastVideoDate":"2025-04-07T13:41:31Z","finalScore":0.9216613742921066},{"channelId":"UCkgdDBHO7zl3tWIjldQeK7g","channelName":"POPS Anime","description":"\uD83D\uDCA5 Kênh YouTube POPS Anime là kênh giải trí tổng hợp các nội dung Anime và Movingtoon đang được yêu thích nhất như: Thám Tử Lừng Danh Conan, Naruto, Boruto, Beyblade Burst, Bad Luck, Anh Trai Tôi Là Khủng Long… cùng nhiều bộ Anime, Movingtoon hấp dẫn khác với 100% bản quyền, dành riêng cho các khán giả tuổi thanh thiếu niên\n\n\uD83D\uDE80 Subscribe Ngay Để Xem Thêm Nhiều Bộ Anime mới nhất!\n","profileImageUrl":"https://yt3.ggpht.com/m-oZP-fIGspqGpv-8BkxZlrMg34PcEFJCG-FPP8l1qj2gdLwYlh34iJcmgc-xVBux282cCmN=s800-c-k-c0x00ffffff-no-rj","platform":"youtube","score":{"genreRelevance":0.8,"audienceFit":0.9,"engagementQuality":1.0,"activityConsistency":1.0,"freshness":1.0,"finalScore":0.9099999999999999},"labels":["Strong Fit","High Influence","Highly engaging content"],"subscriberCount":7660000,"viewCount":6328088284,"lastVideoDate":null,"finalScore":0.9099999999999999},{"channelId":"UCQNS2WJVOY7fkv2hDJtaw2Q","channelName":"TMS Anime Latino","description":"Bienvenidos al canal oficial de TMS International! \nTMS ENTERTAINMENT CO., LTD. es unos de los estudios de anime más grande del mundo con más de 100 títulos como Saint Seiya The Lost Canvas, Sonic X, DR. STONE, LUPIN THE 3rd, y MEGALOBOX!","profileImageUrl":"https://yt3.ggpht.com/ytc/AIdro_l-vtalha19z-9Flcm2M17TEwi7BTcIvRMp_acNBIjwVME=s800-c-k-c0x00ffffff-no-rj","platform":"youtube","score":{"genreRelevance":0.8,"audienceFit":0.9,"engagementQuality":0.9999998729213616,"activityConsistency":1.0,"freshness":1.0,"finalScore":0.9099999745842723},"labels":["Strong Fit","High Influence","Highly engaging content"],"subscriberCount":1560000,"viewCount":573407940,"lastVideoDate":null,"finalScore":0.9099999745842723},{"channelId":"UCBSs9x2KzSLhyyA9IKyt4YA","channelName":"Netflix Anime","description":"About Netflix:\nNetflix is one of the world’s leading entertainment services offering TV series, films, games and live programming across a wide variety of genres and languages. Members can play, pause and resume watching as much as they want, anytime, anywhere, and can change their plans at any time.\n","profileImageUrl":"https://yt3.ggpht.com/ytc/AIdro_nrVA49Tbc6oO0YWFtgwKDvM-DGxKb4DLnGK85GCl1cKpg=s800-c-k-c0x00ffffff-no-rj","platform":"youtube","score":{"genreRelevance":0.8,"audienceFit":0.9,"engagementQuality":0.9999997301040262,"activityConsistency":1.0,"freshness":1.0,"finalScore":0.9099999460208053},"labels":["Strong Fit","High Influence","Highly engaging content"],"subscriberCount":2560000,"viewCount":902411723,"lastVideoDate":null,"finalScore":0.9099999460208053}],"channelResults":{},"fromCache":false,"sessionId":"4ca3b72e-fba2-4d63-a494-f6177fdac70b"}
